COVID-19_currentcases_NZ
…
testnumber <- read_html(testurl) %>% 
  html_nodes(., "table") %>% 
  html_table(., fill = TRUE) %>% .[[8]] %>% 
  filter(Date != "22 Jan  8 Mar") %>% 
  mutate(Date = paste0(Date, "-2020")) %>% 
  mutate(Date = as.Date(Date, "%d-%b-%Y"))

Plot for Positive Cases

daily %>% count(`Date notified of potential case`, sort = T)

## # A tibble: 173 x 2
##    `Date notified of potential case`     n
##    <date>                            <int>
##  1 2020-03-25                           80
##  2 2020-03-26                           69
##  3 2020-03-27                           69
##  4 2020-03-29                           67
##  5 2020-03-28                           65
##  6 2020-03-31                           64
##  7 2020-04-01                           60
##  8 2020-04-02                           59
##  9 2020-03-24                           55
## 10 2020-04-03                           55
## # ... with 163 more rows

daily %>% count(`Date notified of potential case`, DHB, sort = T)

## # A tibble: 475 x 3
##    `Date notified of potential case` DHB           n
##    <date>                            <chr>     <int>
##  1 2020-03-31                        Waikato      24
##  2 2020-03-25                        Waikato      20
##  3 2020-03-27                        Southern     19
##  4 2020-04-02                        Southern     17
##  5 2020-03-29                        Waikato      16
##  6 2020-04-01                        Southern     15
##  7 2020-03-29                        Waitemata    14
##  8 2020-04-03                        Southern     14
##  9 2020-04-05                        Southern     14
## 10 2020-03-28                        Auckland     13
## # ... with 465 more rows
…
